…
download.file(link1, “MID.dta”, mode = “cw”)

bancoMID \<- read\_dta(“MID.dta”)

``` r
library(haven)

setwd("C:\\Users\\vlade\\Downloads") 

banco_militar <-read_dta("MID.dta")

read_dta("MID.dta")
```

    ## # A tibble: 5,558 x 20
    ##    dispnum3 dispnum4 stabb ccode stday stmon styear endday endmon endyear sidea
    ##       <dbl>    <dbl> <chr> <dbl> <dbl> <dbl>  <dbl>  <dbl>  <dbl>   <dbl> <dbl>
    ##  1        2       -9 UKG     200    -9     7   1902     24      1    1903     0
    ##  2        2       -9 USA       2    -9     7   1902     24      1    1903     1
    ##  3        3       -9 YUG     345     2     5   1913     25     10    1913     0
    ##  4        3       -9 AUH     300     2     5   1913     25     10    1913     1
    ##  5        4       -9 ALB     339    15     5   1946     13     11    1946     1
    ##  6        4       -9 UKG     200    15     5   1946     13     11    1946     0
    ##  7        7       -9 UKG     200    13    10   1951     26      1    1952     1
    ##  8        7       -9 EGY     651    13    10   1951     26      1    1952     0
    ##  9        8       -9 IRN     630    -9     7   1856     14      3    1857     0
    ## 10        8       -9 UKG     200    -9     7   1856     14      3    1857     1
    ## # ... with 5,548 more rows, and 9 more variables: revstate <dbl>,
    ## #   revtype1 <dbl>, revtype2 <dbl>, fatality <dbl>, fatalpre <dbl>,
    ## #   hiact <dbl>, hostlev <dbl>, orig <dbl>, version <dbl>
…
